{
    "durian": {
        "name": "Durian",
        "pronunciation": "[doo-ree-uhn]",
        "link": "",
        "facts": [
            "A smelly fruit but it tastes amazing, especially in ice cream.",
            "The only fruit that can clear a room faster than a fire alarm. It's like nature's tear gas, but with a custard-like center!"
        ]
    },
    "canada": {
        "name": "Canada",
        "pronunciation": "[kan-uh-duh]",
        "link": "",
        "facts": [
            "Where “sorry” is both an involuntary reflex and a form of punctuation.",
            "I obtained my bachelor degree in Computer Science from University of Alberta."
        ]
    },
    "finland": {
        "name": "Finland",
        "pronunciation": "[fin-luhnd]",
        "link": "",
        "facts": [
            "Where they have more saunas than cars, and “sisu” is the superpower that helps them endure endless winters.",
            "I obtained my master's degree in Software and Service Engineering (with business minor) from Aalto University."
        ]
    },
    "epicore": {
        "name": "EPICORE Centre",
        "pronunciation": "",
        "link": "https://www.epicore.ualberta.ca/",
        "facts": [
            "Where I did my intern, worked part-time during my last year of university, and worked full-time as a software developer after my graduation.",
            "I designed and built patient portals using C#, VB, ASP.NET, and MSSQL.",
            "I built a cardiovascular risk calculator app for iOS devices using React Native."
        ]
    },
    "dwella": {
        "name": "Dwella Investing",
        "pronunciation": "",
        "link": "https://dwellainvesting.com/",
        "facts": [
            "Where I worked as a front-end developer on a contract.",
            "I built front-end for a real estate investment platform including login flow, token purchase flow, Know-Your- Customers flow, smart contract integration, using React."
        ]
    },
    "futurice": {
        "name": "Futurice",
        "pronunciation": "",
        "link": "https://futurice.com/",
        "facts": [
            "Where I did my summer job as a software developer and continued part-time afterwards.",
            "I built POC of a progressive web app with Vue, Vite for frontend and Node.js, Redpanda for backend.",
            "I developed additional features and styles for websites with Next.js/Gatsby (frontend) and Contentful (CMS)."
        ]
    },
    "sushi": {
        "name": "Sushi",
        "pronunciation": "[soo-shee]",
        "link": "",
        "facts": [
            "Where rice and fish team up to create the ultimate flavor alliance, making every bite a tiny taste explosion.",
            "Tuna belly (otoro) and mackerel (saba) are chef's kiss 🤌.",
            "I'd recommend “Sushi No Musashi” if you have a chance to visit Kyoto."
        ]
    },
    "plot-twist": {
        "name": "Plot twist",
        "pronunciation": "[plawt twist]",
        "link": "",
        "facts": [
            "The only time you watch as if you're in detective training because predicting the ending is the real twist.",
            "I'd recommend movies by Christopher Nolan (Memento, The Prestige) and some Korean movies (Old Boy, Parasite)."
        ]
    },
    "whodunit": {
        "name": "Whodunit",
        "pronunciation": "[hoo-duh-nit]",
        "link": "",
        "facts": [
            "The only genre where you root for your favorite character to be the murderer, just to be proven wrong with a jaw-dropping plot twist.",
            "I'd recommend Rear Window, Clue, Knives Out, and White Lotus (for “mystery” + black comedy)."
        ]
    },
    "fish": {
        "name": "Fish",
        "pronunciation": "[fish]",
        "link": "",
        "facts": [
            "I'm in the process of getting my diving license!", "🐟", "🐠", "🐡", "🦈"
        ]
    }
}