[
    {
        "image": "https://images.unsplash.com/photo-1486427944299-d1955d23e34d?q=80&w=500&auto=format&fit=crop&ixlib=rb-4.0.3&ixid=M3wxMjA3fDB8MHxwaG90by1wYWdlfHx8fGVufDB8fHx8fA%3D%3D",
        "title": "Budget planner & tracker for mobile and desktop app",
        "link": "https://gitlab.com/ayunita/telltally",
        "tech": "Flutter"
    },
    {
        "image": "https://images.unsplash.com/photo-1486427944299-d1955d23e34d?q=80&w=500&auto=format&fit=crop&ixlib=rb-4.0.3&ixid=M3wxMjA3fDB8MHxwaG90by1wYWdlfHx8fGVufDB8fHx8fA%3D%3D",
        "title": "Experimenting with Lit to build web component library",
        "link": "https://gitlab.com/ayunita/bold",
        "tech": "Lit, Vite"
    },
    {
        "image": "https://images.unsplash.com/photo-1486427944299-d1955d23e34d?q=80&w=500&auto=format&fit=crop&ixlib=rb-4.0.3&ixid=M3wxMjA3fDB8MHxwaG90by1wYWdlfHx8fGVufDB8fHx8fA%3D%3D",
        "title": "This website",
        "link": "https://gitlab.com/ayunita/Lit-portfolio",
        "tech": "Lit, Vite"
    },
    {
        "image": "https://images.unsplash.com/photo-1486427944299-d1955d23e34d?q=80&w=500&auto=format&fit=crop&ixlib=rb-4.0.3&ixid=M3wxMjA3fDB8MHxwaG90by1wYWdlfHx8fGVufDB8fHx8fA%3D%3D",
        "title": "My quick UI/UX design for hackathon",
        "link": "https://www.figma.com/file/JZcl97g5WbwwBLY6yY9RpW/Juction-2021---%20mariswap?type=design&node-id=41-590&mode=design",
        "tech": "Figma"
    },
    {
        "image": "https://images.unsplash.com/photo-1486427944299-d1955d23e34d?q=80&w=500&auto=format&fit=crop&ixlib=rb-4.0.3&ixid=M3wxMjA3fDB8MHxwaG90by1wYWdlfHx8fGVufDB8fHx8fA%3D%3D",
        "title": "Website improvement for Women Helpline",
        "link": "https://naistenlinja.fi",
        "tech": "Gatsby, CMS"
    },
    {
        "image": "https://images.unsplash.com/photo-1486427944299-d1955d23e34d?q=80&w=500&auto=format&fit=crop&ixlib=rb-4.0.3&ixid=M3wxMjA3fDB8MHxwaG90by1wYWdlfHx8fGVufDB8fHx8fA%3D%3D",
        "title": "Kraken crypto market watchlist maker",
        "link": "https://bitbucket.org/ayunita/kraken-ticker",
        "tech": "Flutter"
    },
    {
        "image": "https://images.unsplash.com/photo-1486427944299-d1955d23e34d?q=80&w=500&auto=format&fit=crop&ixlib=rb-4.0.3&ixid=M3wxMjA3fDB8MHxwaG90by1wYWdlfHx8fGVufDB8fHx8fA%3D%3D",
        "title": "Prototype for decentralized exchange",
        "link": "https://bitbucket.org/ayunita/rockuote",
        "tech": "React"
    },
    {
        "image": "https://images.unsplash.com/photo-1486427944299-d1955d23e34d?q=80&w=500&auto=format&fit=crop&ixlib=rb-4.0.3&ixid=M3wxMjA3fDB8MHxwaG90by1wYWdlfHx8fGVufDB8fHx8fA%3D%3D",
        "title": "Markdown blog template",
        "link": "https://cupcake-ipsum-blog.netlify.app",
        "tech": "Gatsby"
    },
    {
        "image": "https://images.unsplash.com/photo-1486427944299-d1955d23e34d?q=80&w=500&auto=format&fit=crop&ixlib=rb-4.0.3&ixid=M3wxMjA3fDB8MHxwaG90by1wYWdlfHx8fGVufDB8fHx8fA%3D%3D",
        "title": "Cardiovascular risk calculator iOS",
        "link": "https://apps.apple.com/us/app/epi-rxisk/id1473032733?platform=iphone",
        "tech": "React native"
    },
    {
        "image": "https://images.unsplash.com/photo-1486427944299-d1955d23e34d?q=80&w=500&auto=format&fit=crop&ixlib=rb-4.0.3&ixid=M3wxMjA3fDB8MHxwaG90by1wYWdlfHx8fGVufDB8fHx8fA%3D%3D",
        "title": "Cardiovascular risk calculator web",
        "link": "https://www.epicore.ualberta.ca/epirxisk",
        "tech": "JQuery"
    },
    {
        "image": "https://images.unsplash.com/photo-1486427944299-d1955d23e34d?q=80&w=500&auto=format&fit=crop&ixlib=rb-4.0.3&ixid=M3wxMjA3fDB8MHxwaG90by1wYWdlfHx8fGVufDB8fHx8fA%3D%3D",
        "title": "Disease activity score calculator",
        "link": "http://www.epicore.ualberta.ca/demo/joints",
        "tech": "JQuery"
    }
]